EESchema Schematic File Version 4
EELAYER 30 0
EELAYER END
$Descr A 11000 8500
encoding utf-8
Sheet 1 1
Title ""
Date ""
Rev ""
Comp ""
Comment1 ""
Comment2 ""
Comment3 ""
Comment4 ""
$EndDescr
$Comp
L Device:LED D1
U 1 1 612539B7
P 2550 1850
F 0 "D1" H 2543 1595 50  0000 C CNN
F 1 "LED" H 2543 1686 50  0000 C CNN
F 2 "led-array:SMBB-1050GD" H 2550 1850 50  0001 C CNN
F 3 "~" H 2550 1850 50  0001 C CNN
	1    2550 1850
	-1   0    0    1   
$EndComp
Wire Wire Line
	2700 1850 2900 1850
$Comp
L Device:LED D4
U 1 1 6125455F
P 3050 1850
F 0 "D4" H 3043 1595 50  0000 C CNN
F 1 "LED" H 3043 1686 50  0000 C CNN
F 2 "led-array:SMBB-1050GD" H 3050 1850 50  0001 C CNN
F 3 "~" H 3050 1850 50  0001 C CNN
	1    3050 1850
	-1   0    0    1   
$EndComp
Wire Wire Line
	3200 1850 3400 1850
$Comp
L Device:LED D7
U 1 1 61254B65
P 3550 1850
F 0 "D7" H 3543 1595 50  0000 C CNN
F 1 "LED" H 3543 1686 50  0000 C CNN
F 2 "led-array:SMBB-1050GD" H 3550 1850 50  0001 C CNN
F 3 "~" H 3550 1850 50  0001 C CNN
	1    3550 1850
	-1   0    0    1   
$EndComp
Wire Wire Line
	3700 1850 3900 1850
$Comp
L Device:LED D10
U 1 1 61254BB4
P 4050 1850
F 0 "D10" H 4043 1595 50  0000 C CNN
F 1 "LED" H 4043 1686 50  0000 C CNN
F 2 "led-array:SMBB-1050GD" H 4050 1850 50  0001 C CNN
F 3 "~" H 4050 1850 50  0001 C CNN
	1    4050 1850
	-1   0    0    1   
$EndComp
Wire Wire Line
	4200 1850 4400 1850
$Comp
L Device:LED D13
U 1 1 612559C0
P 4550 1850
F 0 "D13" H 4543 1595 50  0000 C CNN
F 1 "LED" H 4543 1686 50  0000 C CNN
F 2 "led-array:SMBB-1050GD" H 4550 1850 50  0001 C CNN
F 3 "~" H 4550 1850 50  0001 C CNN
	1    4550 1850
	-1   0    0    1   
$EndComp
Wire Wire Line
	4700 1850 4900 1850
$Comp
L Device:LED D16
U 1 1 61255A3F
P 5050 1850
F 0 "D16" H 5043 1595 50  0000 C CNN
F 1 "LED" H 5043 1686 50  0000 C CNN
F 2 "led-array:SMBB-1050GD" H 5050 1850 50  0001 C CNN
F 3 "~" H 5050 1850 50  0001 C CNN
	1    5050 1850
	-1   0    0    1   
$EndComp
Wire Wire Line
	5200 1850 5400 1850
$Comp
L Device:LED D2
U 1 1 6125635D
P 2550 2350
F 0 "D2" H 2543 2095 50  0000 C CNN
F 1 "LED" H 2543 2186 50  0000 C CNN
F 2 "led-array:SMBB-1050GD" H 2550 2350 50  0001 C CNN
F 3 "~" H 2550 2350 50  0001 C CNN
	1    2550 2350
	-1   0    0    1   
$EndComp
Wire Wire Line
	2700 2350 2900 2350
$Comp
L Device:LED D5
U 1 1 6125640C
P 3050 2350
F 0 "D5" H 3043 2095 50  0000 C CNN
F 1 "LED" H 3043 2186 50  0000 C CNN
F 2 "led-array:SMBB-1050GD" H 3050 2350 50  0001 C CNN
F 3 "~" H 3050 2350 50  0001 C CNN
	1    3050 2350
	-1   0    0    1   
$EndComp
Wire Wire Line
	3200 2350 3400 2350
$Comp
L Device:LED D8
U 1 1 61256417
P 3550 2350
F 0 "D8" H 3543 2095 50  0000 C CNN
F 1 "LED" H 3543 2186 50  0000 C CNN
F 2 "led-array:SMBB-1050GD" H 3550 2350 50  0001 C CNN
F 3 "~" H 3550 2350 50  0001 C CNN
	1    3550 2350
	-1   0    0    1   
$EndComp
Wire Wire Line
	3700 2350 3900 2350
$Comp
L Device:LED D11
U 1 1 61256422
P 4050 2350
F 0 "D11" H 4043 2095 50  0000 C CNN
F 1 "LED" H 4043 2186 50  0000 C CNN
F 2 "led-array:SMBB-1050GD" H 4050 2350 50  0001 C CNN
F 3 "~" H 4050 2350 50  0001 C CNN
	1    4050 2350
	-1   0    0    1   
$EndComp
Wire Wire Line
	4200 2350 4400 2350
$Comp
L Device:LED D14
U 1 1 6125642D
P 4550 2350
F 0 "D14" H 4543 2095 50  0000 C CNN
F 1 "LED" H 4543 2186 50  0000 C CNN
F 2 "led-array:SMBB-1050GD" H 4550 2350 50  0001 C CNN
F 3 "~" H 4550 2350 50  0001 C CNN
	1    4550 2350
	-1   0    0    1   
$EndComp
Wire Wire Line
	4700 2350 4900 2350
$Comp
L Device:LED D17
U 1 1 61256438
P 5050 2350
F 0 "D17" H 5043 2095 50  0000 C CNN
F 1 "LED" H 5043 2186 50  0000 C CNN
F 2 "led-array:SMBB-1050GD" H 5050 2350 50  0001 C CNN
F 3 "~" H 5050 2350 50  0001 C CNN
	1    5050 2350
	-1   0    0    1   
$EndComp
Wire Wire Line
	5200 2350 5400 2350
$Comp
L Device:LED D3
U 1 1 61257A72
P 2550 2900
F 0 "D3" H 2543 2645 50  0000 C CNN
F 1 "LED" H 2543 2736 50  0000 C CNN
F 2 "led-array:SMBB-1050GD" H 2550 2900 50  0001 C CNN
F 3 "~" H 2550 2900 50  0001 C CNN
	1    2550 2900
	-1   0    0    1   
$EndComp
Wire Wire Line
	2700 2900 2900 2900
$Comp
L Device:LED D6
U 1 1 61257BB1
P 3050 2900
F 0 "D6" H 3043 2645 50  0000 C CNN
F 1 "LED" H 3043 2736 50  0000 C CNN
F 2 "led-array:SMBB-1050GD" H 3050 2900 50  0001 C CNN
F 3 "~" H 3050 2900 50  0001 C CNN
	1    3050 2900
	-1   0    0    1   
$EndComp
Wire Wire Line
	3200 2900 3400 2900
$Comp
L Device:LED D9
U 1 1 61257BBC
P 3550 2900
F 0 "D9" H 3543 2645 50  0000 C CNN
F 1 "LED" H 3543 2736 50  0000 C CNN
F 2 "led-array:SMBB-1050GD" H 3550 2900 50  0001 C CNN
F 3 "~" H 3550 2900 50  0001 C CNN
	1    3550 2900
	-1   0    0    1   
$EndComp
Wire Wire Line
	3700 2900 3900 2900
$Comp
L Device:LED D12
U 1 1 61257BC7
P 4050 2900
F 0 "D12" H 4043 2645 50  0000 C CNN
F 1 "LED" H 4043 2736 50  0000 C CNN
F 2 "led-array:SMBB-1050GD" H 4050 2900 50  0001 C CNN
F 3 "~" H 4050 2900 50  0001 C CNN
	1    4050 2900
	-1   0    0    1   
$EndComp
Wire Wire Line
	4200 2900 4400 2900
$Comp
L Device:LED D15
U 1 1 61257BD2
P 4550 2900
F 0 "D15" H 4543 2645 50  0000 C CNN
F 1 "LED" H 4543 2736 50  0000 C CNN
F 2 "led-array:SMBB-1050GD" H 4550 2900 50  0001 C CNN
F 3 "~" H 4550 2900 50  0001 C CNN
	1    4550 2900
	-1   0    0    1   
$EndComp
Wire Wire Line
	4700 2900 4900 2900
$Comp
L Device:LED D18
U 1 1 61257BDD
P 5050 2900
F 0 "D18" H 5043 2645 50  0000 C CNN
F 1 "LED" H 5043 2736 50  0000 C CNN
F 2 "led-array:SMBB-1050GD" H 5050 2900 50  0001 C CNN
F 3 "~" H 5050 2900 50  0001 C CNN
	1    5050 2900
	-1   0    0    1   
$EndComp
Wire Wire Line
	5400 1850 5400 2000
Wire Wire Line
	5400 2000 2400 2000
Wire Wire Line
	2400 2000 2400 2350
Wire Wire Line
	5400 2350 5400 2550
Wire Wire Line
	5400 2550 2400 2550
Wire Wire Line
	2400 2550 2400 2900
Wire Wire Line
	2400 1850 1800 1850
Wire Wire Line
	5200 2900 5400 2900
Wire Wire Line
	5400 2900 5400 3100
Wire Wire Line
	5400 3100 2000 3100
Wire Wire Line
	1800 1950 2000 1950
Wire Wire Line
	2000 1950 2000 3100
$Comp
L Connector:Conn_01x02_Female J1
U 1 1 6125CBF3
P 1600 1850
F 0 "J1" H 1492 2035 50  0000 C CNN
F 1 "Conn_01x02_Female" H 1492 1944 50  0000 C CNN
F 2 "Connector_Molex:Molex_KK-396_A-41791-0002_1x02_P3.96mm_Vertical" H 1600 1850 50  0001 C CNN
F 3 "~" H 1600 1850 50  0001 C CNN
	1    1600 1850
	-1   0    0    -1  
$EndComp
$EndSCHEMATC
